…
3 Some Comparisons

all_cons <- bind_rows(dvpw_collection, dgs_collection, hist_collection, inf_collection)
all_n_accounts <- all_cons %>% distinct(screen_name) %>% nrow()
all_n_tweets <- all_cons %>% distinct(status_id) %>% nrow()

all_cons_per_user <- bind_rows(dvpw_counts, dgs_counts, hist_counts, inf_counts) %>%
  group_by(screen_name) %>% 
  distinct(screen_name, .keep_all = TRUE) %>% 
  mutate(avg_output = (Tweets + RT + Favs)/3) %>% 
  arrange(desc(avg_output)) #> 1260
all_cons_per_user %>% distinct(screen_name) %>% count() #> 1260

## # A tibble: 1,260 x 2
## # Groups:   screen_name [1,260]
##    screen_name         n
##    <chr>           <int>
##  1 __ebuuuu            1
##  2 __elifunal          1
##  3 __evamaria__        1
##  4 _AlexanderRabe_     1
##  5 _Bart___            1
##  6 _Bubbles90          1
##  7 _BWINF              1
##  8 _KNHG               1
##  9 _m_art_in_          1
## 10 _RabiaAyas          1
## # ... with 1,250 more rows
…
dvpw_box <- dvpw_counts %>% 
  gather("Metric", "Total", 2:4) %>%
  mutate(Discipline = "PolSci")
dvpw_box

## # A tibble: 708 x 5
##    screen_name     discipline Metric Total Discipline
##    <chr>           <chr>      <chr>  <int> <chr>     
##  1 dvpw            PolSci     Tweets   368 PolSci    
##  2 SassanGholiagha PolSci     Tweets    86 PolSci    
##  3 PetraGuasti     PolSci     Tweets    84 PolSci    
##  4 ronpatz         PolSci     Tweets    58 PolSci    
##  5 thothiel        PolSci     Tweets    44 PolSci    
##  6 elvira_rosert   PolSci     Tweets    41 PolSci    
##  7 wahlforschung   PolSci     Tweets    35 PolSci    
##  8 daniellambach   PolSci     Tweets    33 PolSci    
##  9 VanHuellen      PolSci     Tweets    33 PolSci    
## 10 antje_wiener    PolSci     Tweets    31 PolSci    
## # ... with 698 more rows

dgs_box <- dgs_counts %>% 
  gather("Metric", "Total", 2:4) %>%
  mutate(Discipline = "Socio")
dgs_box

## # A tibble: 2,091 x 5
##    screen_name     discipline Metric Total Discipline
##    <chr>           <chr>      <chr>  <int> <chr>     
##  1 sozmethode      Sociology  Tweets    82 Socio     
##  2 outputin22      Sociology  Tweets    28 Socio     
##  3 LordElend       Sociology  Tweets    26 Socio     
##  4 papatyaizii_    Sociology  Tweets    25 Socio     
##  5 dlindner79      Sociology  Tweets    24 Socio     
##  6 annalytika      Sociology  Tweets    22 Socio     
##  7 katharinahppe   Sociology  Tweets    17 Socio     
##  8 ToBeAsBold      Sociology  Tweets    16 Socio     
##  9 AndreArmbruster Sociology  Tweets    14 Socio     
## 10 klegantke       Sociology  Tweets    14 Socio     
## # ... with 2,081 more rows

hist_box <- hist_counts %>% 
  gather("Metric", "Total", 2:4) %>%
  mutate(Discipline = "History")
hist_box

## # A tibble: 891 x 5
##    screen_name     discipline Metric Total Discipline
##    <chr>           <chr>      <chr>  <int> <chr>     
##  1 Kasutaja_n      History    Tweets    74 History   
##  2 jakobfrohmann   History    Tweets    41 History   
##  3 aberehrlich     History    Tweets    39 History   
##  4 digigw          History    Tweets    34 History   
##  5 MaxGrund4       History    Tweets    26 History   
##  6 Mareike2405     History    Tweets    24 History   
##  7 PortalLISA      History    Tweets    20 History   
##  8 schuleschilling History    Tweets    20 History   
##  9 DenkBrei        History    Tweets    19 History   
## 10 esciencestrier  History    Tweets    17 History   
## # ... with 881 more rows

inf_box <- inf_counts %>% 
  gather("Metric", "Total", 2:4) %>%
  mutate(Discipline = "CS")
inf_box

## # A tibble: 291 x 5
##    screen_name     discipline Metric Total Discipline
##    <chr>           <chr>      <chr>  <int> <chr>     
##  1 SilSte          CS         Tweets    27 CS        
##  2 hiig_berlin     CS         Tweets    26 CS        
##  3 stillinsky      CS         Tweets    26 CS        
##  4 Jessieevaline   CS         Tweets    22 CS        
##  5 TommyBlfd       CS         Tweets    17 CS        
##  6 gross_dc        CS         Tweets    11 CS        
##  7 informatikradar CS         Tweets    11 CS        
##  8 Fraunhofer_IUK  CS         Tweets    10 CS        
##  9 herdom          CS         Tweets     8 CS        
## 10 kryptomania84   CS         Tweets     7 CS        
## # ... with 281 more rows
…
